{
  guest: ['auth:login', 'auth:register'],
  user:  ['auth:logout', 'auth:profile', 'mailbox:list', 'mailbox:show', 'emails:list', 'emails:show', 'emails:update', 'emails:destroy', 'projects:list', 'users:show']
}
